{
  "project_info": {
    "project_number": "967995967659",
    "firebase_url": "https://android-8b8a8.firebaseio.com",
    "project_id": "android-8b8a8",
    "storage_bucket": "android-8b8a8.appspot.com"
  },
  "client": [
    {
      "client_info": {
        "mobilesdk_app_id": "1:967995967659:android:8381d1e1014b172f008fee",
        "android_client_info": {
          "package_name": "com.bluohazard.tourdengalam"
        }
      },
      "oauth_client": [
        {
          "client_id": "967995967659-css1r8mb7h79tvt912ufaenokrv70r7q.apps.googleusercontent.com",
          "client_type": 1,
          "android_info": {
            "package_name": "com.bluohazard.tourdengalam",
            "certificate_hash": "c39dcd14721b14e62d2cc9dc521bb84f6fa4d53a"
          }
        },
        {
          "client_id": "967995967659-7ia7irdm6hd0esfr89n4eogh8803j5ud.apps.googleusercontent.com",
          "client_type": 3
        }
      ],
      "api_key": [
        {
          "current_key": "AIzaSyB1yuug2usmIWPM4jNPC-pGVnI3X7SVhJk"
        }
      ],
      "services": {
        "appinvite_service": {
          "other_platform_oauth_client": [
            {
              "client_id": "967995967659-7ia7irdm6hd0esfr89n4eogh8803j5ud.apps.googleusercontent.com",
              "client_type": 3
            }
          ]
        }
      }
    },
    {
      "client_info": {
        "mobilesdk_app_id": "1:967995967659:android:96220e5a2c91f343008fee",
        "android_client_info": {
          "package_name": "com.rifqidmw.bacanovelwuxia"
        }
      },
      "oauth_client": [
        {
          "client_id": "967995967659-amvv7un7lc59d6smvoofo7bv1i6597jb.apps.googleusercontent.com",
          "client_type": 1,
          "android_info": {
            "package_name": "com.rifqidmw.bacanovelwuxia",
            "certificate_hash": "c39dcd14721b14e62d2cc9dc521bb84f6fa4d53a"
          }
        },
        {
          "client_id": "967995967659-7ia7irdm6hd0esfr89n4eogh8803j5ud.apps.googleusercontent.com",
          "client_type": 3
        }
      ],
      "api_key": [
        {
          "current_key": "AIzaSyB1yuug2usmIWPM4jNPC-pGVnI3X7SVhJk"
        }
      ],
      "services": {
        "appinvite_service": {
          "other_platform_oauth_client": [
            {
              "client_id": "967995967659-7ia7irdm6hd0esfr89n4eogh8803j5ud.apps.googleusercontent.com",
              "client_type": 3
            }
          ]
        }
      }
    },
    {
      "client_info": {
        "mobilesdk_app_id": "1:967995967659:android:08eb96af6bd95a3a008fee",
        "android_client_info": {
          "package_name": "com.rifqidmw.tshirtapp"
        }
      },
      "oauth_client": [
        {
          "client_id": "967995967659-ees5ih1rokl3a9rkij783291lp8a9l7u.apps.googleusercontent.com",
          "client_type": 1,
          "android_info": {
            "package_name": "com.rifqidmw.tshirtapp",
            "certificate_hash": "a4fd0865aae0436ccd8f078a4d6bca965477d898"
          }
        },
        {
          "client_id": "967995967659-7ia7irdm6hd0esfr89n4eogh8803j5ud.apps.googleusercontent.com",
          "client_type": 3
        }
      ],
      "api_key": [
        {
          "current_key": "AIzaSyB1yuug2usmIWPM4jNPC-pGVnI3X7SVhJk"
        }
      ],
      "services": {
        "appinvite_service": {
          "other_platform_oauth_client": [
            {
              "client_id": "967995967659-7ia7irdm6hd0esfr89n4eogh8803j5ud.apps.googleusercontent.com",
              "client_type": 3
            }
          ]
        }
      }
    }
  ],
  "configuration_version": "1"
}